// Jest Snapshot v1, https://goo.gl/fbAQLP

exports[`publish_method renders 1`] = `
<div
  class="d-flex align-items-center order-1 order-md-0 mb-md-1"
>
  <gl-icon-stub
    class="mr-1"
    name="git-merge"
    size="16"
  />
   
  <span
    class="mr-1"
  >
    branch-name
  </span>
   
  <gl-icon-stub
    class="mr-1"
    name="commit"
    size="16"
  />
   
  <gl-link-stub
    class="mr-1"
    href="../commit/sha-baz"
  >
    sha-baz
  </gl-link-stub>
   
  <clipboard-button-stub
    cssclass="border-0 py-0 px-1"
    text="sha-baz"
    title="Copy commit SHA"
    tooltipplacement="top"
  />
</div>
`;
